…
``` r
result_state <- met_means_med_state %>% 
  group_by(state) %>%
  slice(which.min(euclid))

result_state
```

    ## # A tibble: 46 × 11
    ## # Groups:   state [46]
    ##    state USAFID temp.x wind.sp.x atm.press.x    lon   lat temp.y wind.…¹ atm.p…²
    ##    <chr>  <int>  <dbl>     <dbl>       <dbl>  <dbl> <dbl>  <dbl>   <dbl>   <dbl>
    ##  1 AL    722286   26.4      1.68       1015.  -87.6  33.2   26.2    1.54   1015.
    ##  2 AR    723407   25.9      2.21       1015.  -90.6  35.8   26.1    1.86   1015.
    ##  3 AZ    723740   27.2      3.68       1012. -111.   35.0   27.7    3.02   1010.
    ##  4 CA    722977   22.3      2.36       1013. -118.   33.7   22.3    2.52   1013.
    ##  5 CO    724665   20.8      3.95       1013. -104.   39.3   20.8    3.09   1013.
    ##  6 CT    725087   22.6      2.13       1015.  -72.7  41.7   22.4    2.08   1015.
    ##  7 DE    724180   24.6      2.75       1015.  -75.6  39.7   24.6    2.75   1015.
    ##  8 FL    722210   27.7      2.53       1015.  -86.5  30.5   27.5    2.53   1015.
    ##  9 GA    723160   26.6      1.68       1015.  -82.5  31.5   26.8    1.43   1015.
    ## 10 IA    725480   21.4      2.76       1015.  -92.4  42.6   21.4    2.63   1015.
    ## # … with 36 more rows, 1 more variable: euclid <dbl>, and abbreviated variable
    ## #   names ¹​wind.sp.y, ²​atm.press.y
…
met_means_med_loc$euclid <- euclidean(
  a = met_means_med_loc$lon.x,
  b = met_means_med_loc$lon.y,
  c = met_means_med_loc$lat.x,
  d = met_means_med_loc$lat.y)

result_loc <- met_means_med_loc %>% 
  group_by(state) %>%
  slice(which.min(euclid))

result_loc
```

    ## # A tibble: 48 × 7
    ## # Groups:   state [48]
    ##    state USAFID  lon.x lat.x lat.y  lon.y euclid
    ##    <chr>  <int>  <dbl> <dbl> <dbl>  <dbl>  <dbl>
    ##  1 AL    722300  -86.8  33.2  32.8  -86.7 0.442 
    ##  2 AR    723429  -93.1  35.3  35.2  -92.7 0.412 
    ##  3 AZ    723745 -111.   34.3  33.9 -112.  0.396 
    ##  4 CA    723890 -120.   36.8  36.5 -120.  0.416 
    ##  5 CO    726396 -106.   39.1  39.1 -106.  0.202 
    ##  6 CT    725027  -72.8  41.5  41.5  -72.7 0.114 
    ##  7 DE    724088  -75.5  39.1  39.2  -75.5 0.0285
    ##  8 FL    722014  -82.5  28.5  28.3  -82.4 0.149 
    ##  9 GA    722175  -83.6  32.6  32.6  -83.3 0.276 
    ## 10 IA    725466  -93.6  41.7  41.9  -93.5 0.180 
    ## # … with 38 more rows
…
# 
met_state_temp$avg_temp_level <- case_when(
    met_state_temp %>% pull(temp)< 20 ~ "low",
    met_state_temp %>% pull(temp) >= 20 & met_state_temp %>% pull(temp) < 35 ~ "Mid",
    met_state_temp %>% pull(temp) >= 25 ~ "High"
  )

met_state_temp
```

    ## Source: local data table [48 x 7]
    ## Call:   `_DT1`[, .(na_temp = sum(is.na(temp)), temp = mean(temp, na.rm = TRUE), 
    ##     wind.sp = mean(wind.sp, na.rm = TRUE), atm.press = mean(atm.press, 
    ##         na.rm = TRUE), num_stations = length(unique(USAFID, na.rm = TRUE)), 
    ##     entries = .N), keyby = .(STATE)]
    ## 
    ##   STATE na_temp  temp wind.sp atm.press num_stations entries
    ##   <chr>   <int> <dbl>   <dbl>     <dbl>        <int>   <int>
    ## 1 AL       1400  26.2    1.57     1016.           32   44743
    ## 2 AR       1968  26.2    1.84     1015.           33   34829
    ## 3 AZ        937  28.8    2.98     1011.           32   34150
    ## 4 CA       5040  22.4    2.61     1013.          101  109392
    ## 5 CO       1645  19.5    3.08     1014.           54   78843
    ## 6 CT        305  22.3    2.19     1015.           10   11767
    ## # … with 42 more rows
    ## 
    ## # Use as.data.table()/as.data.frame()/as_tibble() to access results
…
