Lab 05 - Data Wrangling
…
# 
met_state_temp$avg_temp_level <- case_when(
    met_state_temp %>% pull(temp)< 20 ~ "low",
    met_state_temp %>% pull(temp) >= 20 & met_state_temp %>% pull(temp) < 35 ~ "Mid",
    met_state_temp %>% pull(temp) >= 25 ~ "High"
  )

met_state_temp

## Source: local data table [48 x 7]
## Call:   `_DT1`[, .(na_temp = sum(is.na(temp)), temp = mean(temp, na.rm = TRUE), 
##     wind.sp = mean(wind.sp, na.rm = TRUE), atm.press = mean(atm.press, 
##         na.rm = TRUE), num_stations = length(unique(USAFID, na.rm = TRUE)), 
##     entries = .N), keyby = .(STATE)]
## 
##   STATE na_temp  temp wind.sp atm.press num_stations entries
##   <chr>   <int> <dbl>   <dbl>     <dbl>        <int>   <int>
## 1 AL       1400  26.2    1.57     1016.           32   44743
## 2 AR       1968  26.2    1.84     1015.           33   34829
## 3 AZ        937  28.8    2.98     1011.           32   34150
## 4 CA       5040  22.4    2.61     1013.          101  109392
## 5 CO       1645  19.5    3.08     1014.           54   78843
## 6 CT        305  22.3    2.19     1015.           10   11767
## #  with 42 more rows
## 
## # Use as.data.table()/as.data.frame()/as_tibble() to access results
…
